Home - Understanding the Impact of Alcohol and Smoking on Obesity Levels
…
tidy(multinom_model)

# A tibble: 144 × 6
   y.level       term               estimate std.error statistic  p.value
   <chr>         <chr>                 <dbl>     <dbl>     <dbl>    <dbl>
 1 Normal_Weight (Intercept)          97.1       4.79     20.3   2.31e-91
 2 Normal_Weight GenderMale           -1.12      1.40     -0.799 4.24e- 1
 3 Normal_Weight Age                   0.517     0.116     4.47  7.98e- 6
 4 Normal_Weight Height             -129.        2.75    -46.9   0       
 5 Normal_Weight Weight                3.14      0.173    18.1   4.22e-73
 6 Normal_Weight hist_overweightyes   -2.22      1.40     -1.58  1.14e- 1
 7 Normal_Weight FAVCyes              -3.79      1.59     -2.38  1.71e- 2
 8 Normal_Weight FCVC                 -1.39      0.926    -1.50  1.34e- 1
 9 Normal_Weight NCP                  -2.28      0.926    -2.46  1.37e- 2
10 Normal_Weight CAECFrequently       -5.51      3.55     -1.55  1.21e- 1
# ℹ 134 more rows
…
The coefficient path plots show how the values of different predictors change as the penalty term increases. As the penalty increases (moving left to right), the model applies more shrinkage, and many coefficients are pulled closer to zero. This is how LASSO performs variable selection.

In my case, most predictors stayed close to zero early on, meaning they weren’t very strong. However, some predictors remained further from zero longer, suggesting they were more important in predicting that specific obesity category. By looking at these plots, I was able to confirm that LASSO kept only the most useful predictors while filtering out the rest.

After fitting the model, I extracted the coefficients and focused on SMOKE and CALC to see if they were selected by LASSO.

lasso_coef <- lasso_fit |>
  broom::tidy()
lasso_coef 

# A tibble: 168 × 4
   class               term         estimate  penalty
   <chr>               <chr>           <dbl>    <dbl>
 1 Insufficient_Weight (Intercept)  -68.3    2.08e-10
 2 Insufficient_Weight Age           -0.0313 2.08e-10
 3 Insufficient_Weight Height        30.9    2.08e-10
 4 Insufficient_Weight Weight      -121.     2.08e-10
 5 Insufficient_Weight FCVC           0.840  2.08e-10
 6 Insufficient_Weight NCP            0.379  2.08e-10
 7 Insufficient_Weight CH2O           0.335  2.08e-10
 8 Insufficient_Weight FAF            1.36   2.08e-10
 9 Insufficient_Weight TUE            0      2.08e-10
10 Insufficient_Weight Gender_Male    0.762  2.08e-10
# ℹ 158 more rows
…
